<?xml version="1.0" encoding="UTF-8"?>
<!DOCTYPE svg PUBLIC "-//W3C//DTD SVG 1.1//EN" "http://www.w3.org/Graphics/SVG/1.1/DTD/svg11.dtd">
<!-- Creator: CorelDRAW 2021 (64-Bit) -->
<svg xmlns="http://www.w3.org/2000/svg" xml:space="preserve" width="44.157mm" height="15.5953mm" version="1.1" style="shape-rendering:geometricPrecision; text-rendering:geometricPrecision; image-rendering:optimizeQuality; fill-rule:evenodd; clip-rule:evenodd"
viewBox="0 0 293 103.48"
 xmlns:xlink="http://www.w3.org/1999/xlink"
 xmlns:xodm="http://www.corel.com/coreldraw/odm/2003">
 <defs>
  <font id="FontID1" horiz-adv-x="736" font-variant="normal" style="fill-rule:nonzero" font-style="normal" font-weight="700">
	<font-face 
		font-family="Poppins">
		<font-face-src>
			<font-face-name name="Poppins Bold"/>
		</font-face-src>
	</font-face>
   <missing-glyph><path d="M0 0z"/></missing-glyph>
   <glyph unicode="I" horiz-adv-x="295" d="M62.0047 0l170.991 0 0 702 -170.991 0 0 -702z"/>
   <glyph unicode="J" horiz-adv-x="578" d="M331.004 223.998c0,-52.003 -24.0066,-78.0046 -65.0038,-78.0046 -43.9963,0 -69.9978,29.0007 -69.9978,89.0104l-170.001 0c0,-158.004 100.993,-242.007 244.992,-242.007 139.005,0 231.001,79.9995 231.001,231.001l0 478.002 -170.991 0 0 -478.002z"/>
   <glyph unicode="T" horiz-adv-x="591" d="M24.0066 565.004l185.987 0 0 -565.004 171.005 0 0 565.004 186 0 0 136.997 -542.992 0 0 -136.997z"/>
   <glyph unicode="b" horiz-adv-x="678" d="M232.996 479.006l0 260.992 -170.991 0 0 -739.998 170.991 0 0 78.0046c31.0091,-49.0039 90.0011,-86.0113 172.009,-86.0113 136.997,0 245.997,112.013 245.997,288.012 0,175.999 -107.996,285.99 -245.997,285.99 -79.9995,0 -141,-36.9938 -172.009,-86.9884zm244.002 -199.001c0,-89.0104 -58.0013,-139.005 -122.992,-139.005 -63.9996,0 -122.001,49.0039 -122.001,138.001 0,88.9969 58.0013,138.001 122.001,138.001 64.9902,0 122.992,-47.9997 122.992,-136.997z"/>
   <glyph unicode="o" horiz-adv-x="636" d="M607.996 279.001c0,177.003 -125.991,286.994 -289.993,286.994 -162.998,0 -290.007,-109.991 -290.007,-286.994 0,-177.003 124.009,-287.007 287.998,-287.007 164.002,0 292.001,110.004 292.001,287.007zm-405.996 0c0,94.9951 53.9979,139.005 116.003,139.005 59.9962,0 116.003,-44.0099 116.003,-139.005 0,-94.0045 -57.0106,-139.005 -118.011,-139.005 -61.9911,0 -113.994,45.0005 -113.994,139.005z"/>
  </font>
  <font id="FontID0" horiz-adv-x="674" font-variant="normal" style="fill-rule:nonzero" font-weight="400">
	<font-face 
		font-family="Poppins">
		<font-face-src>
			<font-face-name name="Poppins Regular"/>
		</font-face-src>
	</font-face>
   <missing-glyph><path d="M0 0z"/></missing-glyph>
   <glyph unicode="f" horiz-adv-x="328" d="M94.0037 0l90.9996 0 0 473.006 114.998 0 0 75.0004 -114.998 0 0 39.0023c0,70.9835 27.0029,100.991 108.99,100.991l0 75.9961c-139.993,0 -199.99,-55.0015 -199.99,-176.987l0 -39.0023 -71.0006 0 0 -75.0004 71.0006 0 0 -473.006z"/>
   <glyph unicode="i" horiz-adv-x="245" d="M76.9917 0l91.0168 0 0 548.006 -91.0168 0 0 -548.006zm47.0019 636.997c33.0112,0 60.0141,27.0029 60.0141,62.0054 0,35.0025 -27.0029,62.0054 -60.0141,62.0054 -34.9853,0 -61.9882,-27.0029 -61.9882,-62.0054 0,-35.0025 27.0029,-62.0054 61.9882,-62.0054z"/>
   <glyph unicode="o" horiz-adv-x="640" d="M596.999 275.007c0,172.987 -121.007,281.994 -276.999,281.994 -154.996,0 -276.999,-109.007 -276.999,-281.994 0,-174 118.003,-284.003 272.999,-284.003 155.992,0 280.998,110.003 280.998,284.003zm-461.006 0c0,137.984 86.9998,202.994 183.012,202.994 93.9866,0 185.003,-65.0095 185.003,-202.994 0,-139.014 -93.0081,-204.007 -188.007,-204.007 -94.9994,0 -180.008,64.9924 -180.008,204.007z"/>
   <glyph unicode="r" horiz-adv-x="372" d="M168.009 297.993c0,127.015 65.988,166 152.988,166l23.9988 0 0 94.0037c-86.9998,0 -146.001,-37.9895 -176.987,-98.9992l0 89.0083 -91.0168 0 0 -548.006 91.0168 0 0 297.993z"/>
   <glyph unicode="s" horiz-adv-x="521" d="M470.997 149.005c-3.99979,195.99 -321.992,124.989 -321.992,254.991 0,43.9977 39.9979,75.9961 106.999,75.9961 72.9919,0 114.998,-39.9979 118.998,-94.9994l90.9996 0c-6.00827,106.999 -86.0042,172.008 -206.994,172.008 -122.002,0 -201.003,-69.0093 -201.003,-153.005 0,-203.989 324,-132.989 324,-254.991 0,-45.0106 -39.9979,-81.0087 -112.011,-81.0087 -76.9917,0 -123.994,39.9979 -128.989,93.0081l-94.0037 0c5.99111,-100.012 95.9951,-170 224.006,-170 120.989,0 199.99,67.9965 199.99,158z"/>
   <glyph unicode="t" horiz-adv-x="363" d="M97.0079 150.001c0,-110.003 54.9843,-150.001 151.992,-150.001l82.0044 0 0 76.9917 -67.0008 0c-55.9971,0 -75.9961,19.0033 -75.9961,73.0091l0 323.005 142.997 0 0 75.0004 -142.997 0 0 138.001 -90.9996 0 0 -138.001 -71.0006 0 0 -75.0004 71.0006 0 0 -323.005z"/>
   <glyph unicode="u" horiz-adv-x="640" d="M562.992 548.006l-90.9996 0 0 -301.015c0,-117.985 -63.001,-175.991 -156.988,-175.991 -92.0124,0 -153.005,56.9928 -153.005,167.991l0 309.014 -90.0039 0 0 -321.014c0,-156.988 98.9992,-234.992 225.001,-234.992 73.0091,0 140.01,31.9984 174.995,88.9911l0 -80.9915 90.9996 0 0 548.006z"/>
  </font>
  <style type="text/css">
   <![CDATA[
    @font-face { font-family:"Poppins";font-variant:normal;font-style:normal;font-weight:bold;src:url("#FontID1") format(svg)}
    @font-face { font-family:"Poppins";font-variant:normal;font-weight:normal;src:url("#FontID0") format(svg)}
    .fil0 {fill:#FEFEFE}
    .fnt0 {font-weight:normal;font-size:38.65px;font-family:'Poppins'}
    .fnt1 {font-weight:bold;font-size:48.89px;font-family:'Poppins'}
   ]]>
  </style>
 </defs>
 <g id="Capa_x0020_1">
  <metadata id="CorelCorpID_0Corel-Layer"/>
  <path class="fil0" d="M63.92 21.78c4.04,-1.08 6,-1.42 10.17,-0.68 0.39,0.07 0.51,0.07 0.89,0.17 1.2,0.3 3.1,0.85 4.12,1.43 1.25,0.7 1.07,0.41 2.23,1.27 0.27,0.2 0.44,0.27 0.73,0.44 2.07,1.23 4.95,4.51 6.08,6.59 2.58,4.75 3.1,8.65 2.45,13.87 -0.07,0.6 -0.13,0.81 -0.29,1.37 -0.14,0.51 -0.2,0.83 -0.35,1.33l-1.6 3.69c-0.47,0.8 -0.89,1.5 -1.43,2.25 -0.47,0.66 -1.13,1.49 -1.74,2.07 -0.76,0.72 -1.27,1.28 -2.16,1.94 -3.61,2.68 -7.59,4.31 -12.17,4.37 -4.15,0.06 -7.35,-0.77 -10.81,-2.76l-3.29 -2.28c-2.17,-1.8 -4.92,-5.66 -5.79,-8.61 -0.22,-0.74 -0.41,-0.9 -0.59,-1.65 -1.3,-5.47 -0.53,-10.91 2.23,-15.74 0.29,-0.5 0.42,-0.65 0.74,-1.11 0.98,-1.41 2.31,-3.09 3.69,-4.13 1.95,-1.47 3.98,-3.03 6.89,-3.82zm-20.98 25.11c0.79,2.95 0.8,3.37 2.11,6.24 0.95,2.09 2.41,4.2 3.84,5.91 2.83,3.4 3.24,1.33 -0.83,8.38 -1.13,1.96 -2.2,3.8 -3.33,5.77 -1.08,1.88 -4.2,6.91 -4.74,8.8 -1.91,6.74 5.42,10.96 10.21,6 1.47,-1.53 4.08,-6.43 5.27,-8.49l5.8 -10.05c1.36,-2.37 1.01,-0.98 7.7,-0.31 6.71,0.67 14.74,-2.26 19.65,-6.64 2.26,-2.02 3.78,-3.73 5.36,-6.35 0.27,-0.44 0.47,-0.57 0.71,-1.02 0.22,-0.41 0.23,-0.61 0.48,-1.04 1.46,-2.55 2.11,-5.18 2.7,-8 1.76,-8.42 -1.69,-18.72 -7.78,-24.57 -2.89,-2.78 -6.33,-5.12 -10.11,-6.45 -1.97,-0.69 -2.55,-0.85 -4.74,-1.3 -7.39,-1.52 -17.09,0.95 -22.76,6.01 -1.85,1.65 -1.75,1.47 -3.44,3.39 -0.57,0.65 -0.99,1.23 -1.48,1.89 -0.29,0.4 -0.38,0.51 -0.63,0.95 -0.27,0.48 -0.42,0.6 -0.7,1.02 -0.44,0.66 -1.68,3.52 -2,4.22 -1.85,4.02 -2.45,11.23 -1.27,15.63z"/>
  <path class="fil0" d="M74.5 30.08c3.03,-0.81 3.18,-4.16 0.74,-5.46 -1.79,-0.95 -6.23,-0.31 -8.65,0.34 -2.17,0.58 -4.65,2.05 -5.98,3.13l-2.18 2.04c-0.32,0.36 -0.62,0.74 -0.92,1.12 -1.87,2.36 -6.07,10.45 -1.68,11.77 1,0.3 2.16,0.08 2.98,-0.7 1.5,-1.44 0.27,-3.85 3.63,-7.9 1.12,-1.34 2.98,-2.88 5.16,-3.61 4.5,-1.5 5.59,-0.38 6.9,-0.74z"/>
  <g transform="matrix(0.999986 0 0 0.999986 2319.67 504.839)">
   <text x="-2207.85" y="-459.8"  class="fil0 fnt0">our first </text>
  </g>
  <g transform="matrix(0.999986 0 0 0.999986 2319.67 504.839)">
  </g>
  <g transform="matrix(0.999986 0 0 0.999986 2318.44 542.917)">
   <text x="-2207.85" y="-459.8"  class="fil0 fnt1">IT Job</text>
  </g>
  <path class="fil0" d="M292.16 52.62c-5.99,0.21 -13.05,2.7 -13.05,15.03l0 21.77c0,12.96 -12.69,14.41 -21.08,14l0 -1.76c6.23,0.21 13.89,-1.97 13.89,-14.51l0 -21.77c0,-8.71 5.39,-12.23 11.5,-13.58 -6.11,-1.45 -11.5,-4.87 -11.5,-13.69l0 -21.77c0,-12.03 -7.66,-14.72 -13.89,-14.51l0 -1.76c8.26,-0.41 21.08,1.04 21.08,14l0 24.36c0,10.78 7.78,12.44 13.89,12.44l0 1.76 -0.84 0z"/>
  <path class="fil0" d="M-0 52.62l0 -1.76c6.11,0 13.89,-1.66 13.89,-12.44l0 -24.36c0,-12.96 12.81,-14.41 21.07,-14l0 1.76c-6.23,-0.21 -13.89,2.49 -13.89,14.51l0 21.77c0,8.81 -5.39,12.23 -11.5,13.69 6.11,1.35 11.5,4.87 11.5,13.58l0 21.77c0,12.54 7.67,14.72 13.89,14.51l0 1.76c-8.38,0.41 -21.07,-1.04 -21.07,-14l0 -21.77c0,-12.34 -7.07,-14.82 -13.05,-15.03l-0.84 0z"/>
 </g>
</svg>
